DataVizBlog - Predicting if a NBA team has a winning percentage
…
grid <-
  team_stats_tidy |>
  data_grid(
    Deff = seq_range(Deff, n = 50),
    FG_pct = seq_range(FG_pct, n = 10),
    Conference = c("West", "East"),
    over100 = c("Yes", "No")
  )

aug_stats <-
  augment(playoffs_mod,
          se_fit = TRUE)
aug_stats

# A tibble: 725 × 12
   Playoffs  Deff Conference FG_pct over100 .fitted .se.fit .resid    .hat
      <dbl> <dbl> <chr>       <dbl> <fct>     <dbl>   <dbl>  <dbl>   <dbl>
 1        1  17.5 East         44.9 No         4.85   0.416  0.125 0.00133
 2        1  17.5 West         48.3 No         3.68   0.410  0.223 0.00405
 3        1  13.6 West         46.6 No         2.80   0.304  0.343 0.00497
 4        1  13.2 West         48   Yes        3.13   0.301  0.293 0.00365
 5        1  13.1 West         46.8 No         2.64   0.302  0.371 0.00567
 6        1  12.2 East         46.8 No         3.19   0.335  0.285 0.00428
 7        1  10   East         44.9 No         2.80   0.277  0.344 0.00416
 8        1   9.4 West         47.1 Yes        2.19   0.236  0.461 0.00505
 9        1   7.3 East         45.4 No         2.00   0.235  0.503 0.00580
10        1   7.2 East         44.6 No         2.06   0.236  0.489 0.00558
# ℹ 715 more rows
# ℹ 3 more variables: .sigma <dbl>, .cooksd <dbl>, .std.resid <dbl>

Next I need to convert the .fitted values to predicted probabilities.

aug_stats <-
  aug_stats |>
  mutate(.predprob = (exp(.fitted) / (1 + exp(.fitted))))
aug_stats

# A tibble: 725 × 13
   Playoffs  Deff Conference FG_pct over100 .fitted .se.fit .resid    .hat
      <dbl> <dbl> <chr>       <dbl> <fct>     <dbl>   <dbl>  <dbl>   <dbl>
 1        1  17.5 East         44.9 No         4.85   0.416  0.125 0.00133
 2        1  17.5 West         48.3 No         3.68   0.410  0.223 0.00405
 3        1  13.6 West         46.6 No         2.80   0.304  0.343 0.00497
 4        1  13.2 West         48   Yes        3.13   0.301  0.293 0.00365
 5        1  13.1 West         46.8 No         2.64   0.302  0.371 0.00567
 6        1  12.2 East         46.8 No         3.19   0.335  0.285 0.00428
 7        1  10   East         44.9 No         2.80   0.277  0.344 0.00416
 8        1   9.4 West         47.1 Yes        2.19   0.236  0.461 0.00505
 9        1   7.3 East         45.4 No         2.00   0.235  0.503 0.00580
10        1   7.2 East         44.6 No         2.06   0.236  0.489 0.00558
# ℹ 715 more rows
# ℹ 4 more variables: .sigma <dbl>, .cooksd <dbl>, .std.resid <dbl>,
#   .predprob <dbl>
…
